[
  {
    "model": "bolu.province",
    "pk": "043e57f2-9177-4f6b-9e4e-a404e1e0f33d",
    "fields": { "name": "Banten", "province_id": 3 }
  },
  {
    "model": "bolu.province",
    "pk": "0e8d7c98-4cb1-47ef-9c17-682f94e332ce",
    "fields": { "name": "Sumatera Utara", "province_id": 34 }
  },
  {
    "model": "bolu.province",
    "pk": "14613831-b55b-49c2-b754-2adc5285ab4e",
    "fields": { "name": "Jawa Timur", "province_id": 11 }
  },
  {
    "model": "bolu.province",
    "pk": "1e7344de-85c1-4be3-bd0c-64dde82cff0f",
    "fields": { "name": "Bali", "province_id": 1 }
  },
  {
    "model": "bolu.province",
    "pk": "1ec637fc-7862-40b8-abdb-971d9ca1208e",
    "fields": { "name": "Papua", "province_id": 24 }
  },
  {
    "model": "bolu.province",
    "pk": "25e50a7d-2cf1-4889-95d7-e92724d45604",
    "fields": { "name": "Sulawesi Barat", "province_id": 27 }
  },
  {
    "model": "bolu.province",
    "pk": "26545a41-885d-481c-99b8-4c1a43cf22b2",
    "fields": { "name": "Kepulauan Riau", "province_id": 17 }
  },
  {
    "model": "bolu.province",
    "pk": "2d8047f7-c03a-4288-b087-0b89917e9f9e",
    "fields": { "name": "Papua Barat", "province_id": 25 }
  },
  {
    "model": "bolu.province",
    "pk": "3136749e-b957-4c6d-9bed-96f8891feaf0",
    "fields": { "name": "Kalimantan Selatan", "province_id": 13 }
  },
  {
    "model": "bolu.province",
    "pk": "35db754c-7e69-406c-9e5c-db8ed7427ec9",
    "fields": { "name": "Nanggroe Aceh Darussalam (NAD)", "province_id": 21 }
  },
  {
    "model": "bolu.province",
    "pk": "37485eae-b8db-421e-b002-a7ec9888ae1e",
    "fields": { "name": "Kalimantan Timur", "province_id": 15 }
  },
  {
    "model": "bolu.province",
    "pk": "3b3af5fe-a478-4cb7-bf01-3b29df70032e",
    "fields": { "name": "Kalimantan Barat", "province_id": 12 }
  },
  {
    "model": "bolu.province",
    "pk": "3ddfac6c-9ee2-45f4-addc-f70280a4d8fa",
    "fields": { "name": "DI Yogyakarta", "province_id": 5 }
  },
  {
    "model": "bolu.province",
    "pk": "43b36f3e-891c-4d03-98c0-a7110c831644",
    "fields": { "name": "Gorontalo", "province_id": 7 }
  },
  {
    "model": "bolu.province",
    "pk": "4592f417-3fd5-4c4b-a1e1-d32ac6307f86",
    "fields": { "name": "Jawa Barat", "province_id": 9 }
  },
  {
    "model": "bolu.province",
    "pk": "4a336ad5-168e-44fa-b176-3722c396aa77",
    "fields": { "name": "Sumatera Barat", "province_id": 32 }
  },
  {
    "model": "bolu.province",
    "pk": "4d50c717-f48d-45d0-ab22-fbf345f2d695",
    "fields": { "name": "Kalimantan Utara", "province_id": 16 }
  },
  {
    "model": "bolu.province",
    "pk": "647d9145-2fca-4bca-bf89-d4ec95108c4d",
    "fields": { "name": "Lampung", "province_id": 18 }
  },
  {
    "model": "bolu.province",
    "pk": "6581e972-6d2d-426c-adaa-642e15b9afe8",
    "fields": { "name": "Sulawesi Tengah", "province_id": 29 }
  },
  {
    "model": "bolu.province",
    "pk": "662d39e5-e039-445c-bc5f-9deb423da643",
    "fields": { "name": "Sumatera Selatan", "province_id": 33 }
  },
  {
    "model": "bolu.province",
    "pk": "80c0096e-151d-45f6-a625-1cb1e3fc6394",
    "fields": { "name": "Nusa Tenggara Timur (NTT)", "province_id": 23 }
  },
  {
    "model": "bolu.province",
    "pk": "86689a65-953b-4721-ab4c-548b5f51653c",
    "fields": { "name": "Jambi", "province_id": 8 }
  },
  {
    "model": "bolu.province",
    "pk": "8e60ab56-ed5c-49f8-8906-9df5be76ebf3",
    "fields": { "name": "Sulawesi Tenggara", "province_id": 30 }
  },
  {
    "model": "bolu.province",
    "pk": "c33cddfb-bce8-4198-ab08-e41db6cfea72",
    "fields": { "name": "Bengkulu", "province_id": 4 }
  },
  {
    "model": "bolu.province",
    "pk": "c5b53aff-5d0d-4ba2-83df-87005ae4a768",
    "fields": { "name": "Nusa Tenggara Barat (NTB)", "province_id": 22 }
  },
  {
    "model": "bolu.province",
    "pk": "c6b233c5-4474-4a36-bcfe-ad28f091266f",
    "fields": { "name": "Riau", "province_id": 26 }
  },
  {
    "model": "bolu.province",
    "pk": "c8884d8a-e9f0-4f39-844c-6837202dce15",
    "fields": { "name": "Kalimantan Tengah", "province_id": 14 }
  },
  {
    "model": "bolu.province",
    "pk": "d074c190-a9a6-402c-bb2f-026fd5f93916",
    "fields": { "name": "Jawa Tengah", "province_id": 10 }
  },
  {
    "model": "bolu.province",
    "pk": "d08e52ec-c95a-48f0-a965-9372fe2ba5fc",
    "fields": { "name": "Sulawesi Utara", "province_id": 31 }
  },
  {
    "model": "bolu.province",
    "pk": "d3b074ab-d436-4f4a-907f-f51f01c47f57",
    "fields": { "name": "Maluku Utara", "province_id": 20 }
  },
  {
    "model": "bolu.province",
    "pk": "d5ec66bd-9581-42cd-8d14-d740a16433e2",
    "fields": { "name": "DKI Jakarta", "province_id": 6 }
  },
  {
    "model": "bolu.province",
    "pk": "ec521c91-5227-45cd-a253-ee8cd3a8bb63",
    "fields": { "name": "Maluku", "province_id": 19 }
  },
  {
    "model": "bolu.province",
    "pk": "f0e7ca91-ccd1-4dbc-84b6-ba52a7f27c69",
    "fields": { "name": "Sulawesi Selatan", "province_id": 28 }
  },
  {
    "model": "bolu.province",
    "pk": "f206684a-9a5d-4c04-8bfa-4c7d408c5386",
    "fields": { "name": "Bangka Belitung", "province_id": 2 }
  }
]
